shift2R - Creating a Shift Table in R
…
Steps to create a Shift Table

1. Calculating BIG N

adsl_bign <- select(na_to_missing(adsl), all_of(c("USUBJID", "TRT01A"))) |>
  add_count(.data$TRT01A, name = "TRT_N")
adsl_bign

# A tibble: 306 × 3
   USUBJID     TRT01A               TRT_N
   <chr>       <chr>                <int>
 1 01-701-1015 Placebo                 86
 2 01-701-1023 Placebo                 86
 3 01-701-1028 Xanomeline High Dose    72
 4 01-701-1033 Xanomeline Low Dose     96
 5 01-701-1034 Xanomeline High Dose    72
 6 01-701-1047 Placebo                 86
 7 01-701-1057 Screen Failure          52
 8 01-701-1097 Xanomeline Low Dose     96
 9 01-701-1111 Xanomeline Low Dose     96
10 01-701-1115 Xanomeline Low Dose     96
# ℹ 296 more rows
…
adlb_prep

# A tibble: 1,388 × 112
   STUDYID  DOMAIN USUBJID LBSEQ LBTESTCD LBTEST LBCAT LBORRES LBORRESU LBORNRLO
   <chr>    <chr>  <chr>   <dbl> <chr>    <chr>  <chr> <chr>   <chr>    <chr>   
 1 CDISCPI… LB     01-701…    56 HGB      Hemog… HEMA… 14.3    g/dL     11.5    
 2 CDISCPI… LB     01-701…    90 HGB      Hemog… HEMA… 13.4    g/dL     11.5    
 3 CDISCPI… LB     01-701…   120 HGB      Hemog… HEMA… 13.8    g/dL     11.5    
 4 CDISCPI… LB     01-701…   150 HGB      Hemog… HEMA… 14.0    g/dL     11.5    
 5 CDISCPI… LB     01-701…   181 HGB      Hemog… HEMA… 13.4    g/dL     11.5    
 6 CDISCPI… LB     01-701…   215 HGB      Hemog… HEMA… 14.1    g/dL     11.5    
 7 CDISCPI… LB     01-701…   245 HGB      Hemog… HEMA… 13.7    g/dL     11.5    
 8 CDISCPI… LB     01-701…   276 HGB      Hemog… HEMA… 14.0    g/dL     11.5    
 9 CDISCPI… LB     01-701…   310 HGB      Hemog… HEMA… 14.3    g/dL     11.5    
10 CDISCPI… LB     01-701…    55 HGB      Hemog… HEMA… 14.9    g/dL     12.5    
# ℹ 1,378 more rows
# ℹ 102 more variables: LBORNRHI <chr>, LBSTRESC <chr>, LBSTRESN <dbl>,
#   LBSTRESU <chr>, LBSTNRLO <dbl>, LBSTNRHI <dbl>, LBNRIND <chr>,
#   LBBLFL <chr>, VISITNUM <dbl>, VISIT <chr>, VISITDY <dbl>, LBDTC <chr>,
#   LBDY <dbl>, TRTSDT <date>, TRTEDT <date>, TRT01A <chr>, TRT01P <chr>,
#   ADT <date>, ADY <dbl>, PARAMCD <chr>, PARAM <chr>, PARAMN <dbl>,
#   PARCAT1 <chr>, AVAL <dbl>, AVALC <chr>, ANRLO <dbl>, ANRHI <dbl>, …
…
[1] 96

3. Creating a dummy dataset to get all combinations of ANRIND and BNRIND

all_anrind_comb <- expand_grid(
  trt_var = unique(adlb_prep[["trt_var"]]),
  AVISIT = intersect(levels(as.factor(adlb_prep[["AVISIT"]])), unique(adlb_prep[["AVISIT"]])),
  BNRIND = as.factor(c("Low", "Normal", "High", "Total"))
) |>
  cross_join(tibble(ANRIND = as.factor(c("Low", "Normal", "High"))))
all_anrind_comb

# A tibble: 324 × 4
   trt_var           AVISIT  BNRIND ANRIND
   <chr>             <chr>   <fct>  <fct> 
 1 Placebo<br>(N=86) Week 12 Low    Low   
 2 Placebo<br>(N=86) Week 12 Low    Normal
 3 Placebo<br>(N=86) Week 12 Low    High  
 4 Placebo<br>(N=86) Week 12 Normal Low   
 5 Placebo<br>(N=86) Week 12 Normal Normal
 6 Placebo<br>(N=86) Week 12 Normal High  
 7 Placebo<br>(N=86) Week 12 High   Low   
 8 Placebo<br>(N=86) Week 12 High   Normal
 9 Placebo<br>(N=86) Week 12 High   High  
10 Placebo<br>(N=86) Week 12 Total  Low   
# ℹ 314 more rows
…
  group_by(!!!syms(c("trt_var", "AVISITN", "ANRIND", "BNRIND"))) |>
  count(.data[["AVISIT"]], name = "CNT") |>
  ungroup() |>
  full_join(all_anrind_comb, by = c("trt_var", "AVISIT", "BNRIND", "ANRIND")) |>
  mutate(across("CNT", ~ replace_na(.x, 0))) |>
  arrange(
    .data[["trt_var"]],
    factor(.data[["BNRIND"]], levels = c("Low", "Normal", "High", "Total")),
    factor(.data[["ANRIND"]], levels = c("Low", "Normal", "High", "Total")),
    .data[["AVISITN"]]
  ) |>
  select(-all_of("AVISITN"))
shift_counts

# A tibble: 324 × 5
   trt_var           ANRIND BNRIND AVISIT    CNT
   <chr>             <chr>  <chr>  <chr>   <int>
 1 Placebo<br>(N=86) Low    Low    Week 2      4
 2 Placebo<br>(N=86) Low    Low    Week 4      4
 3 Placebo<br>(N=86) Low    Low    Week 6      3
 4 Placebo<br>(N=86) Low    Low    Week 8      5
 5 Placebo<br>(N=86) Low    Low    Week 12     4
 6 Placebo<br>(N=86) Low    Low    Week 16     4
 7 Placebo<br>(N=86) Low    Low    Week 20     4
 8 Placebo<br>(N=86) Low    Low    Week 24     5
 9 Placebo<br>(N=86) Low    Low    Week 26     4
10 Placebo<br>(N=86) Normal Low    Week 2      3
# ℹ 314 more rows
…
post_base_grade_totals <- shift_wide |>
  summarize(across(where(is.numeric), sum), .by = all_of("AVISIT")) |>
  mutate(ANRIND = "Total")

shift_final <- shift_wide |>
  bind_rows(post_base_grade_totals)
shift_final

# A tibble: 36 × 14
   AVISIT  ANRIND `Placebo<br>(N=86)<->Low` `Placebo<br>(N=86)<->Normal`
   <chr>   <chr>                      <int>                        <int>
 1 Week 2  Low                            4                            2
 2 Week 4  Low                            4                            2
 3 Week 6  Low                            3                            1
 4 Week 8  Low                            5                            2
 5 Week 12 Low                            4                            1
 6 Week 16 Low                            4                            1
 7 Week 20 Low                            4                            1
 8 Week 24 Low                            5                            4
 9 Week 26 Low                            4                            1
10 Week 2  Normal                         3                           73
# ℹ 26 more rows
# ℹ 10 more variables: `Placebo<br>(N=86)<->High` <int>,
#   `Placebo<br>(N=86)<->Total` <int>,
#   `Xanomeline High Dose<br>(N=72)<->Low` <int>,
#   `Xanomeline High Dose<br>(N=72)<->Normal` <int>,
#   `Xanomeline High Dose<br>(N=72)<->High` <int>,
#   `Xanomeline High Dose<br>(N=72)<->Total` <int>, …
…
