shift2R - Tidy approach to create Shift Tables using {tidyverse} and {gt}
…
Steps to create a Shift Table

1. Calculating BIG N

adsl_bign <- select(na_to_missing(adsl), all_of(c("USUBJID", "TRT01A"))) |>
  add_count(.data$TRT01A, name = "TRT_N")
adsl_bign

# A tibble: 306 × 3
   USUBJID     TRT01A               TRT_N
   <chr>       <chr>                <int>
 1 01-701-1015 Placebo                 86
 2 01-701-1023 Placebo                 86
 3 01-701-1028 Xanomeline High Dose    72
 4 01-701-1033 Xanomeline Low Dose     96
 5 01-701-1034 Xanomeline High Dose    72
 6 01-701-1047 Placebo                 86
 7 01-701-1057 Screen Failure          52
 8 01-701-1097 Xanomeline Low Dose     96
 9 01-701-1111 Xanomeline Low Dose     96
10 01-701-1115 Xanomeline Low Dose     96
# ℹ 296 more rows
…
Joining with `by = join_by(USUBJID, TRT01A)`

adlb_prep

# A tibble: 1,060 × 112
   STUDYID  DOMAIN USUBJID LBSEQ LBTESTCD LBTEST LBCAT LBORRES LBORRESU LBORNRLO
   <chr>    <chr>  <chr>   <dbl> <chr>    <chr>  <chr> <chr>   <chr>    <chr>   
 1 CDISCPI… LB     01-701…   105 ALP      Alkal… CHEM… 43      U/L      35      
 2 CDISCPI… LB     01-701…   135 ALP      Alkal… CHEM… 47      U/L      35      
 3 CDISCPI… LB     01-701…   165 ALP      Alkal… CHEM… 53      U/L      35      
 4 CDISCPI… LB     01-701…   200 ALP      Alkal… CHEM… 41      U/L      35      
 5 CDISCPI… LB     01-701…   230 ALP      Alkal… CHEM… 45      U/L      35      
 6 CDISCPI… LB     01-701…   260 ALP      Alkal… CHEM… 46      U/L      35      
 7 CDISCPI… LB     01-701…   295 ALP      Alkal… CHEM… 44      U/L      35      
 8 CDISCPI… LB     01-701…   104 ALP      Alkal… CHEM… 40      U/L      35      
 9 CDISCPI… LB     01-701…   134 ALP      Alkal… CHEM… 40      U/L      35      
10 CDISCPI… LB     01-701…   164 ALP      Alkal… CHEM… 41      U/L      35      
# ℹ 1,050 more rows
# ℹ 102 more variables: LBORNRHI <chr>, LBSTRESC <chr>, LBSTRESN <dbl>,
#   LBSTRESU <chr>, LBSTNRLO <dbl>, LBSTNRHI <dbl>, LBNRIND <chr>,
#   LBBLFL <chr>, VISITNUM <dbl>, VISIT <chr>, VISITDY <dbl>, LBDTC <chr>,
#   LBDY <dbl>, TRTSDT <date>, TRTEDT <date>, TRT01A <chr>, TRT01P <chr>,
#   ADT <date>, ADY <dbl>, PARAMCD <chr>, PARAM <chr>, PARAMN <dbl>,
#   PARCAT1 <chr>, AVAL <dbl>, AVALC <chr>, ANRLO <dbl>, ANRHI <dbl>, …
…
